<?xml version="1.0" encoding="utf-8"?>
<!-- Generator: Adobe Illustrator 21.1.0, SVG Export Plug-In . SVG Version: 6.00 Build 0)  -->
<svg version="1.1" id="Layer_1" xmlns="http://www.w3.org/2000/svg" xmlns:xlink="http://www.w3.org/1999/xlink" x="0px" y="0px"
	 width="424px" height="404px" viewBox="0 0 424 404" style="enable-background:new 0 0 424 404;" xml:space="preserve">
<style type="text/css">
	.st0{fill:#16A6DF;}
	.st1{fill:#1FBAB0;}
	.st2{fill:#FEFEFE;}
</style>
<g>
	<path class="st0" d="M252,343c-0.6,0-1-0.4-1-1v-40c0-5-4-9-9-9h-10c-6.1,0-11-4.9-11-11v-30c0-0.6,0.4-1,1-1s1,0.4,1,1v30
		c0,5,4,9,9,9h10c6.1,0,11,4.9,11,11v40C253,342.6,252.6,343,252,343z M192,323h-50c-0.6,0-1-0.4-1-1s0.4-1,1-1h50c5,0,9-4,9-9v-80
		c0-0.6,0.4-1,1-1s1,0.4,1,1v80C203,318.1,198.1,323,192,323z M332,263c-0.6,0-1-0.4-1-1v-40c0-5-4-9-9-9h-70c-0.6,0-1-0.4-1-1
		s0.4-1,1-1h70c6.1,0,11,4.9,11,11v40C333,262.6,332.6,263,332,263z M82,253H62c-0.6,0-1-0.4-1-1s0.4-1,1-1h20c5,0,9-4,9-9v-20
		c0-6.1,4.9-11,11-11h60c0.6,0,1,0.4,1,1s-0.4,1-1,1h-60c-5,0-9,4-9,9v20C93,248.1,88.1,253,82,253z M302,193h-40c-0.6,0-1-0.4-1-1
		s0.4-1,1-1h40c5,0,9-4,9-9v-10c0-6.1,4.9-11,11-11h40c0.6,0,1,0.4,1,1s-0.4,1-1,1h-40c-5,0-9,4-9,9v10C313,188.1,308.1,193,302,193
		z M157,193h-20c-6.1,0-11-4.9-11-11v-70c0-5-4-9-9-9H92c-0.6,0-1-0.4-1-1s0.4-1,1-1h25c6.1,0,11,4.9,11,11v70c0,5,4,9,9,9h20
		c0.6,0,1,0.4,1,1S157.6,193,157,193z M222,153c-0.6,0-1-0.4-1-1v-30c0-6.1,4.9-11,11-11h80c5,0,9-4,9-9V72c0-0.6,0.4-1,1-1
		s1,0.4,1,1v30c0,6.1-4.9,11-11,11h-80c-5,0-9,4-9,9v30C223,152.6,222.6,153,222,153z M202,153c-0.6,0-1-0.4-1-1V62c0-0.6,0.4-1,1-1
		s1,0.4,1,1v90C203,152.6,202.6,153,202,153z"/>
</g>
<g>
	<path class="st1" d="M32,284c-17.6,0-32-14.4-32-32s14.4-32,32-32s32,14.4,32,32S49.6,284,32,284z M32,224c-15.4,0-28,12.6-28,28
		s12.6,28,28,28s28-12.6,28-28S47.4,224,32,224z"/>
</g>
<path class="st0" d="M272,202c0,33.1-26.9,60-60,60s-60-26.9-60-60s26.9-60,60-60S272,168.9,272,202"/>
<path class="st2" d="M226.2,191.1c4.3,0,8.2-1.8,10.9-4.6c-5.4-8.1-14.5-13.4-25-13.4c-6.1,0-11.8,1.8-16.5,4.9
	c-4.8,3.2-8.7,7.7-11,13.1h22H226.2z M206.7,215.1h-22c2.3,5.3,6.2,9.9,11,13.1c4.7,3.1,10.4,4.9,16.5,4.9c10.4,0,19.6-5.3,25-13.4
	c-2.8-2.9-6.6-4.6-10.9-4.6H206.7z M207.8,212.1h-24.2c-0.9-2.8-1.4-5.9-1.4-9s0.5-6.2,1.4-9h24.2h15.7c4.9,0,9,4,8.9,9
	c0,5-4,9-8.9,9H207.8z"/>
<g>
	<path class="st1" d="M252,404c-17.6,0-32-14.4-32-32s14.4-32,32-32s32,14.4,32,32S269.6,404,252,404z M252,344
		c-15.4,0-28,12.6-28,28s12.6,28,28,28s28-12.6,28-28S267.4,344,252,344z M122,344c-12.1,0-22-9.9-22-22s9.9-22,22-22s22,9.9,22,22
		S134.1,344,122,344z M122,304c-9.9,0-18,8.1-18,18s8.1,18,18,18s18-8.1,18-18S131.9,304,122,304z M332,304c-12.1,0-22-9.9-22-22
		s9.9-22,22-22s22,9.9,22,22S344.1,304,332,304z M332,264c-9.9,0-18,8.1-18,18s8.1,18,18,18s18-8.1,18-18S341.9,264,332,264z
		 M392,194c-17.6,0-32-14.4-32-32s14.4-32,32-32s32,14.4,32,32S409.6,194,392,194z M392,134c-15.4,0-28,12.6-28,28s12.6,28,28,28
		s28-12.6,28-28S407.4,134,392,134z M72,124c-12.1,0-22-9.9-22-22s9.9-22,22-22s22,9.9,22,22S84.1,124,72,124z M72,84
		c-9.9,0-18,8.1-18,18s8.1,18,18,18s18-8.1,18-18S81.9,84,72,84z M322,74c-12.1,0-22-9.9-22-22s9.9-22,22-22s22,9.9,22,22
		S334.1,74,322,74z M322,34c-9.9,0-18,8.1-18,18s8.1,18,18,18s18-8.1,18-18S331.9,34,322,34z M202,64c-17.6,0-32-14.4-32-32
		s14.4-32,32-32c17.6,0,32,14.4,32,32S219.6,64,202,64z M202,4c-15.4,0-28,12.6-28,28s12.6,28,28,28s28-12.6,28-28S217.4,4,202,4z"
		/>
</g>
</svg>
